22

1
Ian Darwin
1
1
1
1
1
1
1

10
Justin Arnet
Penny James
Lydia McAfee
Ian Ford
Alan Herbert
Marie Ekler
Olivia Blanton
Quin Owens
Sonia Darwin
Hector Queens
5 3 7 4 9 2 6 1 8 10
8 3 1 9 5 4 6 10 7 2
10 7 4 9 5 8 6 1 2 3
7 8 2 3 1 5 10 6 9 4
9 10 1 5 7 3 8 4 6 2
10 6 7 2 4 9 8 3 5 1
4 5 2 8 6 3 1 10 7 9
5 7 3 8 10 9 4 1 6 2
8 2 3 5 1 10 9 6 7 4
6 9 5 3 1 2 4 10 7 8
5 7 8 6 10 9 3 4 1 2

9
Rachel Ford
Kasey Ekler
Bob Herbert
Hector Norris
Dean Stevens
Olivia Queens
Chuck Darwin
Ernie Arnet
Tracy Long
1 6 7 4 5 2 9 8 3
6 8 3 1 5 4 9 2 7

7
Rachel Norris
Chuck Arnet
Lydia Owens
Tracy McAfee
Justin Cross
Gary Herbert
Hector Irvin
6 1 4 2 7 5 3
5 7 2 4 6 1 3
7 6 5 2 4 3 1
1 6 5 2 4 3 7
5 1 7 6 3 4 2
3 5 4 6 1 7 2
5 2 1 3 7 4 6

4
Gary Darwin
Hector Ford
Bob Norris
Alan Cross
1 3 2 4
4 2 1 3
3 4 1 2
1 3 2 4
1 4 2 3
3 4 2 1
1 4 2 3

6
Nora Irvin
Hector Tucker
Bob Cross
Kasey Garvin
Penny Herbert
Ian Ekler
3 5 2 6 1 4
3 6 4 5 1 2
2 1 4 5 3 6
6 1 4 5 2 3
4 6 2 1 3 5
5 6 2 1 4 3
1 2 3 4 6 5

4
Marie Darwin
Olivia Kelce
Tracy McAfee
Hector Stevens
3 4 1 2
2 3 1 4
3 4 1 2
1 3 2 4
3 4 2 1

8
Chuck Kelce
Sonia Owens
Quin Cross
Alan Ford
Lydia James
Gary Ekler
Penny Irvin
Olivia McAfee
3 6 8 5 7 2 1 4
6 1 4 2 5 8 3 7
8 6 3 2 5 7 1 4
6 3 4 7 5 2 8 1
3 1 7 4 5 6 8 2
3 6 5 1 7 4 8 2
2 5 4 8 6 7 1 3
5 3 8 2 6 4 1 7

1
Penny Peters
1
1
1
1
1
1
1

4
Dean Owens
Kasey Irvin
Tracy Blanton
Gary Peters
2 1 3 4
3 1 2 4
4 2 3 1
1 2 3 4
4 2 3 1
2 1 4 3

1
Bob Tucker
1
1
1
1
1
1

3
Alan James
Dean Irvin
Frank Ford
1 2 3
2 1 3
2 1 3
3 2 1

2
Penny Irvin
Alan Garvin
1 2
2 1
2 1
1 2

9
Tracy Blanton
Hector McAfee
Gary Tucker
Quin Darwin
Dean Queens
Nora Arnet
Alan Irvin
Penny Owens
Rachel Stevens
4 5 2 9 3 7 8 1 6
9 7 3 2 6 1 4 8 5
3 4 9 1 7 2 8 5 6
6 2 5 8 1 7 4 9 3
9 7 5 8 2 4 6 1 3
1 7 4 8 6 2 5 3 9

4
Quin Cross
Alan Kelce
Sonia Russel
Ernie Stevens
1 4 3 2

1
Penny Ekler
1
1

7
Marie Irvin
Sonia Cross
Gary Blanton
Ian Russel
Penny Owens
Lydia Ford
Nora Long
3 6 4 2 7 5 1
3 6 5 2 4 7 1
5 2 1 6 3 7 4
1 3 2 4 7 5 6

10
Alan Cross
Ernie Garvin
Ian Tucker
Hector Irvin
Tracy Russel
Sonia Queens
Lydia Darwin
Nora Herbert
Chuck Kelce
Rachel Ekler
6 5 8 9 1 7 10 4 3 2
7 5 10 2 6 9 4 8 1 3
8 10 3 4 9 2 7 5 1 6
10 1 2 3 5 4 7 9 6 8
3 5 8 4 7 2 9 10 1 6
10 7 5 6 9 4 8 2 3 1
8 1 9 7 3 2 5 4 10 6
5 4 2 9 1 8 6 7 10 3
6 7 3 2 10 4 8 1 5 9

8
Chuck Irvin
Quin Long
Nora Cross
Tracy Norris
Kasey Kelce
Olivia Herbert
Ian Tucker
Bob Stevens
7 2 1 5 3 6 4 8
6 4 5 7 2 1 3 8
4 2 5 8 3 7 1 6
6 8 2 7 5 4 3 1
5 6 7 8 3 2 4 1
3 1 8 6 2 7 5 4
5 4 3 8 1 7 6 2
8 4 1 6 5 2 7 3

2
Marie Kelce
Kasey Queens
1 2
2 1
2 1
2 1
2 1
1 2
1 2
1 2
1 2
2 1
2 1
2 1
1 2
2 1

4
Nora Queens
Sonia Norris
Bob Ford
Penny James
2 4 3 1
1 2 4 3
1 2 4 3
4 3 1 2
3 1 2 4
4 3 2 1
3 4 2 1
4 1 2 3
3 1 4 2
4 2 1 3

3
Ian Garvin
Tracy Norris
Quin Tucker
2 3 1
1 3 2
3 2 1
2 1 3
3 2 1
1 3 2
