26

8
Gary Tucker
Bob Arnet
Ian James
Hector Irvin
Kasey Blanton
Lydia Cross
Frank Peters
Alan Garvin
5 3 1 7 2 4 8 6
4 6 7 3 1 5 2 8
4 1 8 5 2 3 6 7
3 1 6 7 5 2 8 4
7 6 8 2 3 4 5 1

5
Kasey Darwin
Dean McAfee
Ernie Long
Penny Cross
Marie Ford
1 2 4 5 3
4 2 1 5 3
2 1 4 5 3
1 5 2 3 4

8
Quin Garvin
Dean Ford
Ernie Blanton
Gary Cross
Kasey Herbert
Alan Irvin
Hector McAfee
Rachel Stevens
1 6 2 4 5 3 7 8
6 7 3 8 5 1 4 2
4 7 1 6 2 5 3 8
2 1 7 5 3 6 4 8
1 4 6 3 8 7 5 2

8
Alan Russel
Rachel Garvin
Nora Owens
Lydia Queens
Sonia Stevens
Frank Cross
Marie James
Hector Long
4 8 7 1 5 2 6 3

3
Dean Cross
Frank Peters
Alan Blanton
2 3 1
3 1 2
1 3 2
1 2 3
3 2 1
2 1 3
3 2 1
3 1 2
3 1 2

9
Lydia Blanton
Gary Stevens
Bob Tucker
Penny Long
Rachel Kelce
Kasey Owens
Justin Darwin
Olivia Russel
Quin McAfee
7 9 3 6 4 8 5 2 1
7 9 3 6 8 5 1 2 4
1 7 9 5 2 4 3 6 8

10
Marie Stevens
Sonia Herbert
Kasey Garvin
Hector Tucker
Rachel Long
Gary Norris
Chuck Queens
Alan McAfee
Lydia Blanton
Quin Arnet
6 10 4 3 1 8 9 5 2 7
1 4 9 6 2 8 5 7 10 3
8 1 6 3 7 4 9 10 5 2

1
Gary James
1
1
1
1
1

8
Hector Queens
Alan Ford
Dean Peters
Chuck Stevens
Justin Cross
Bob Ekler
Kasey Blanton
Sonia Long
1 2 4 7 8 6 5 3
1 7 5 2 4 6 8 3
2 1 5 7 3 4 6 8
8 5 1 7 6 4 2 3

4
Lydia Ford
Bob James
Chuck Arnet
Justin Darwin
2 3 4 1
3 4 2 1
1 2 3 4
4 2 1 3
4 3 2 1
4 2 3 1
4 1 3 2
1 4 3 2

4
Sonia Stevens
Chuck Arnet
Lydia James
Kasey McAfee
2 4 3 1
3 2 4 1
4 2 1 3
2 3 1 4
3 2 1 4
4 1 2 3
3 2 4 1

4
Alan Ekler
Chuck Darwin
Kasey Russel
Sonia Blanton
2 1 3 4
4 1 3 2
2 3 4 1
1 2 3 4
1 3 2 4
2 3 1 4

2
Frank Long
Olivia Kelce
2 1
1 2
2 1
2 1
1 2
2 1
1 2

3
Frank Stevens
Sonia McAfee
Penny Owens
3 2 1
2 3 1
2 1 3
3 1 2
3 2 1
1 3 2

4
Sonia Peters
Lydia Herbert
Gary Darwin
Dean McAfee
3 2 4 1
1 4 2 3
4 2 1 3
3 2 4 1
2 3 4 1
1 4 3 2

2
Quin McAfee
Tracy Peters
1 2
2 1
1 2
1 2
1 2
1 2
1 2

4
Rachel Stevens
Penny Irvin
Nora Russel
Chuck McAfee
4 2 1 3
2 3 4 1
4 2 3 1
3 2 4 1
1 3 4 2

5
Quin Garvin
Dean Cross
Marie Arnet
Justin Kelce
Tracy Long
4 5 2 3 1
2 4 3 1 5
4 1 2 5 3
1 4 3 2 5

1
Frank McAfee
1
1
1

1
Ernie Darwin
1
1

3
Chuck Herbert
Quin Peters
Kasey McAfee
1 3 2
1 3 2

7
Nora Ford
Bob Arnet
Marie Owens
Chuck Garvin
Justin Darwin
Rachel Herbert
Gary James
6 7 2 4 3 1 5
1 6 3 2 5 7 4
4 1 7 3 6 5 2
5 7 1 2 6 4 3
5 3 7 6 1 4 2

6
Lydia Cross
Ernie Herbert
Chuck Ekler
Ian Long
Gary Tucker
Quin Kelce
4 1 2 5 3 6
5 4 6 3 2 1
2 3 1 6 4 5

3
Alan Tucker
Justin Russel
Chuck Cross
3 1 2
1 2 3
2 3 1
1 3 2
1 2 3

6
Penny Norris
Kasey Tucker
Ian James
Ernie Kelce
Hector Stevens
Olivia Peters
3 1 6 4 5 2
3 4 6 1 5 2
2 4 6 3 1 5

2
Ian Peters
Justin Queens
2 1
2 1
2 1
2 1
2 1
