22

8
Chuck Stevens
Sonia Russel
Nora Herbert
Lydia James
Tracy Blanton
Marie Kelce
Justin Darwin
Penny Owens
3 8 7 1 5 6 4 2
5 1 8 7 4 3 2 6
6 4 3 2 7 8 5 1
7 5 4 2 1 8 6 3
5 6 8 3 1 2 4 7
4 2 7 6 3 1 8 5
1 8 2 7 6 5 3 4
2 8 7 3 1 4 5 6
5 2 8 7 3 6 1 4

2
Rachel McAfee
Marie Herbert
1 2
2 1
2 1
2 1
1 2

2
Hector Darwin
Dean Ekler
1 2
2 1
1 2
1 2
1 2
2 1
1 2
1 2

3
Rachel Peters
Quin Ford
Dean James
1 2 3
2 3 1
1 3 2
1 3 2
3 1 2
2 3 1
2 1 3
3 2 1
1 2 3
1 3 2
1 3 2
2 3 1
2 1 3

1
Lydia Irvin
1
1
1

8
Frank Garvin
Tracy Owens
Rachel McAfee
Ian Blanton
Alan Ford
Chuck James
Marie Tucker
Bob Ekler
4 1 8 2 7 5 6 3
5 4 7 8 3 1 2 6
7 6 4 1 3 5 8 2

7
Bob Darwin
Justin Cross
Kasey James
Hector Russel
Lydia Herbert
Alan Irvin
Frank Tucker
5 1 4 7 2 6 3
1 4 7 5 3 2 6
4 1 3 2 5 6 7
2 3 6 5 1 7 4
1 6 3 7 5 2 4
2 7 4 3 6 1 5

2
Lydia Ford
Gary Ekler
2 1
1 2
2 1
2 1
1 2

4
Frank Tucker
Ernie Ekler
Justin Irvin
Hector McAfee
4 1 2 3

5
Ernie Kelce
Nora Cross
Justin Herbert
Ian Long
Bob Ford
3 1 4 2 5
1 5 3 2 4
4 3 1 5 2
4 3 5 2 1
2 4 5 1 3

2
Rachel Tucker
Bob Russel
2 1
2 1
2 1
2 1
1 2
2 1
1 2
1 2
1 2
1 2
2 1
2 1
1 2
1 2
1 2
2 1
2 1
2 1
2 1

9
Alan Tucker
Ernie Kelce
Justin McAfee
Gary Norris
Marie Blanton
Rachel Russel
Lydia Herbert
Chuck Darwin
Olivia Ford
7 3 4 6 2 9 5 1 8
1 3 2 8 9 4 7 5 6
5 6 2 1 7 4 8 9 3

8
Bob McAfee
Lydia Garvin
Ian Ford
Marie Ekler
Sonia Long
Kasey Irvin
Hector Owens
Nora Arnet
6 1 2 3 7 4 8 5
2 1 5 4 8 7 3 6
8 4 5 1 7 3 6 2
4 7 3 1 2 8 6 5

5
Rachel Herbert
Olivia McAfee
Penny Ford
Ernie Ekler
Chuck Stevens
4 3 2 5 1
1 3 5 4 2
1 4 5 3 2
2 5 3 4 1
5 1 2 3 4
2 4 5 1 3

8
Frank Garvin
Tracy McAfee
Olivia Long
Alan Herbert
Sonia Darwin
Kasey Ford
Rachel Arnet
Chuck Stevens
3 8 1 2 7 5 6 4
2 5 1 4 8 3 6 7
5 6 4 2 1 3 8 7
5 6 8 3 4 2 1 7
1 4 2 7 8 6 3 5
2 8 3 5 4 7 6 1
2 8 1 5 3 7 4 6
1 6 8 7 3 5 4 2
3 8 4 7 2 1 5 6
7 1 3 6 2 8 4 5
1 2 6 8 3 7 5 4
2 6 7 8 3 4 5 1

5
Nora Ekler
Penny Long
Sonia Tucker
Kasey Owens
Gary Cross
1 2 4 3 5
5 3 2 4 1
5 1 3 4 2
3 2 5 1 4
2 4 1 3 5
2 5 1 3 4
3 2 5 1 4
1 2 5 3 4

3
Tracy Stevens
Bob Irvin
Dean Darwin
2 3 1

4
Penny Owens
Quin Arnet
Gary Kelce
Alan Tucker
2 1 3 4

10
Lydia McAfee
Chuck Russel
Justin Irvin
Hector Queens
Ian Stevens
Sonia Owens
Bob Ford
Quin Arnet
Tracy Norris
Gary Herbert
2 1 10 8 7 4 9 6 5 3
3 9 4 2 10 7 1 5 6 8

9
Ian Ekler
Frank Irvin
Hector Queens
Nora Herbert
Quin Long
Alan Ford
Lydia Cross
Justin Blanton
Gary Darwin
5 8 3 4 6 1 9 7 2
5 1 6 4 3 8 9 2 7
5 9 6 1 2 4 3 7 8
1 7 5 2 9 6 8 4 3
4 7 9 1 6 2 8 5 3
1 9 6 8 7 5 2 4 3
4 7 9 1 3 8 6 2 5
7 9 1 3 5 4 8 2 6
7 1 6 8 4 9 2 3 5
3 1 5 7 8 4 2 6 9
1 2 3 9 5 6 7 8 4
9 3 1 5 2 6 7 4 8
3 8 4 1 6 9 7 5 2

9
Gary Kelce
Hector Arnet
Ernie Norris
Ian Peters
Chuck Long
Nora Owens
Penny Tucker
Dean Queens
Justin McAfee
4 2 5 7 6 1 3 8 9
3 7 9 8 6 2 5 1 4
5 8 9 3 2 6 1 4 7
3 6 2 7 8 5 1 4 9
8 2 4 6 7 5 9 3 1
3 7 8 6 2 4 1 9 5

1
Bob Owens
1
1
1
