20

6
Sonia Ekler
Tracy Cross
Alan Blanton
Gary Herbert
Chuck Long
Rachel Darwin
1 6 5 2 3 4
2 6 5 3 1 4
2 6 4 5 3 1
5 1 2 4 3 6
6 2 3 5 4 1
3 6 5 2 1 4
1 6 5 4 3 2
2 6 3 5 1 4
5 4 2 6 3 1
3 4 1 5 6 2
4 5 3 1 2 6
5 6 2 1 3 4
6 1 3 4 2 5
3 4 2 5 1 6
5 1 2 6 3 4

6
Marie Tucker
Rachel Cross
Penny Russel
Dean James
Lydia Darwin
Olivia McAfee
3 1 6 4 2 5
1 2 4 3 6 5
1 5 4 6 3 2
6 2 3 1 4 5
5 1 6 3 4 2
5 2 4 6 1 3
6 2 5 4 1 3
2 1 4 5 6 3
5 1 3 4 2 6
4 3 1 2 6 5
3 5 6 1 4 2
3 4 1 5 2 6
6 1 5 3 2 4
5 2 4 3 1 6
1 5 4 3 6 2

4
Alan Ekler
Lydia Irvin
Quin Stevens
Sonia Darwin
4 2 3 1
1 4 2 3
1 3 4 2
1 4 2 3
3 1 4 2
3 2 1 4
3 1 2 4
1 2 4 3
4 3 2 1
1 3 2 4
1 4 2 3
4 1 3 2
3 2 4 1
1 4 3 2
4 3 2 1

5
Frank James
Kasey Garvin
Lydia Tucker
Marie Darwin
Gary Ford
3 5 4 2 1
4 3 5 1 2
4 3 5 1 2

3
Frank Stevens
Alan Irvin
Kasey Owens
3 1 2
3 1 2
2 1 3
2 3 1
2 3 1

6
Kasey Herbert
Bob Irvin
Penny Cross
Sonia Owens
Quin Peters
Dean McAfee
3 5 1 2 4 6
1 6 4 2 3 5

4
Frank Long
Kasey Ford
Ian James
Chuck Ekler
1 4 2 3
1 2 3 4
4 1 2 3
1 2 4 3
2 1 4 3
3 1 4 2

2
Quin Ford
Alan James
2 1

6
Dean Norris
Bob Long
Frank Owens
Ernie McAfee
Quin Tucker
Tracy Blanton
5 4 2 1 6 3
3 4 5 2 1 6
5 4 6 2 3 1
5 2 6 1 4 3
2 3 5 4 6 1
3 5 4 2 1 6
4 5 3 6 1 2
1 4 3 5 2 6
3 5 6 2 4 1
2 3 4 1 5 6
4 2 3 5 1 6

3
Marie Ford
Tracy Queens
Penny Herbert
3 2 1
2 1 3

5
Chuck Darwin
Ernie Long
Rachel Russel
Kasey Queens
Nora Arnet
3 1 2 5 4
5 2 1 3 4
2 4 5 1 3
5 2 3 4 1

5
Frank Long
Kasey Blanton
Ian Kelce
Marie Peters
Olivia Irvin
3 5 1 2 4
1 4 5 3 2

3
Dean Tucker
Gary Long
Quin McAfee
1 3 2
1 2 3
2 1 3
1 2 3
3 2 1
1 2 3
1 2 3
3 2 1

1
Hector McAfee
1
1
1
1

6
Ian Queens
Ernie Ford
Gary Ekler
Quin Cross
Alan Long
Justin Stevens
5 4 2 3 6 1
2 6 4 1 5 3
1 2 6 4 5 3
5 2 3 6 1 4
6 1 5 3 2 4
2 6 4 5 1 3
4 6 5 1 2 3
4 2 1 6 3 5
5 2 3 1 4 6
2 5 4 6 1 3
5 6 2 3 4 1
1 2 3 5 6 4

2
Bob Herbert
Hector Tucker
1 2
2 1
2 1
1 2
1 2
2 1
1 2
1 2

3
Frank Long
Marie Arnet
Quin Garvin
1 2 3
1 2 3

1
Rachel Ekler
1
1
1
1
1

5
Nora Herbert
Lydia Stevens
Rachel Darwin
Bob Garvin
Alan Long
3 4 2 1 5
1 3 4 5 2
2 5 1 4 3
4 3 1 2 5
5 1 2 4 3
2 4 1 3 5
4 5 2 1 3
5 2 4 3 1
5 2 3 1 4
3 2 5 1 4
2 5 1 4 3
4 5 3 1 2
2 4 1 3 5
4 3 1 5 2
1 2 5 3 4

3
Ian Peters
Chuck Ford
Tracy Norris
1 3 2
1 2 3
1 2 3
1 2 3
2 3 1
3 1 2
1 3 2
1 3 2
3 2 1
1 2 3
1 3 2
